test.vcd
$date
	Tue Jun 20 13:50:25 2023
$end
$version
	Icarus Verilog
$end
$timescale
	1ps
$end
$scope module tb $end
$var reg 1 ! clk $end
$var reg 1 " pc_en $end
$var reg 1 # rst $end
$var integer 32 $ cnt [31:0] $end
$scope module RISCV $end
$var wire 1 ! clk $end
$var wire 8 % pc_branch [7:0] $end
$var wire 1 " pc_en $end
$var wire 1 # rst $end
$var wire 1 & stall $end
$var wire 8 ' pc_next [7:0] $end
$var wire 8 ( pc_4 [7:0] $end
$var wire 1 ) branch $end
$var wire 2 * WBSel [1:0] $end
$var wire 32 + WB [31:0] $end
$var wire 1 , RegWrite $end
$var wire 32 - Read_Data [31:0] $end
$var wire 32 . RD2 [31:0] $end
$var wire 32 / RD1 [31:0] $end
$var wire 1 0 PCSel $end
$var wire 1 1 MemRW $end
$var wire 32 2 Instruction [31:0] $end
$var wire 3 3 ImmSel [2:0] $end
$var wire 32 4 Imm [31:0] $end
$var wire 2 5 Forward_BSel [1:0] $end
$var wire 2 6 Forward_ASel [1:0] $end
$var wire 3 7 DatasizeSel [2:0] $end
$var wire 1 8 BrU $end
$var wire 1 9 BrLt $end
$var wire 1 : BrEq $end
$var wire 1 ; BSel $end
$var wire 1 < ASel $end
$var wire 32 = ALU_result [31:0] $end
$var wire 32 > ALU_B [31:0] $end
$var wire 32 ? ALU_A [31:0] $end
$var wire 4 @ ALUSel [3:0] $end
$var reg 32 A EX_MEM_ALU_result [31:0] $end
$var reg 3 B EX_MEM_DatasizeSel [2:0] $end
$var reg 1 C EX_MEM_MemRW $end
$var reg 5 D EX_MEM_RD [4:0] $end
$var reg 32 E EX_MEM_RD2 [31:0] $end
$var reg 1 F EX_MEM_RegWrite $end
$var reg 2 G EX_MEM_WBSel [1:0] $end
$var reg 4 H ID_EX_ALUSel [3:0] $end
$var reg 1 I ID_EX_ASel $end
$var reg 1 J ID_EX_BSel $end
$var reg 3 K ID_EX_DatasizeSel [2:0] $end
$var reg 32 L ID_EX_Imm [31:0] $end
$var reg 1 M ID_EX_MemRW $end
$var reg 8 N ID_EX_PC [7:0] $end
$var reg 5 O ID_EX_RD [4:0] $end
$var reg 32 P ID_EX_RD1 [31:0] $end
$var reg 32 Q ID_EX_RD2 [31:0] $end
$var reg 5 R ID_EX_RS1 [4:0] $end
$var reg 5 S ID_EX_RS2 [4:0] $end
$var reg 1 T ID_EX_RegWrite $end
$var reg 2 U ID_EX_WBSel [1:0] $end
$var reg 32 V IF_ID_Instruction [31:0] $end
$var reg 8 W IF_ID_PC [7:0] $end
$var reg 32 X MEM_WB_ALU_result [31:0] $end
$var reg 5 Y MEM_WB_RD [4:0] $end
$var reg 32 Z MEM_WB_Read_Data [31:0] $end
$var reg 1 [ MEM_WB_RegWrite $end
$var reg 2 \ MEM_WB_WBSel [1:0] $end
$var reg 8 ] PC [7:0] $end
$scope module ALU $end
$var wire 32 ^ A [31:0] $end
$var wire 4 _ ALUSel [3:0] $end
$var wire 32 ` A_unsigned [31:0] $end
$var wire 32 a B [31:0] $end
$var wire 32 b B_unsigned [31:0] $end
$var reg 32 c ALU_result [31:0] $end
$upscope $end
$scope module Br_Comp $end
$var wire 32 d RD1_signed [31:0] $end
$var wire 32 e RD2_signed [31:0] $end
$var wire 32 f RD2 [31:0] $end
$var wire 32 g RD1 [31:0] $end
$var wire 1 8 BrU $end
$var wire 1 9 BrLt $end
$var wire 1 : BrEq $end
$upscope $end
$scope module Br_Ctrl $end
$var wire 8 h IF_ID_PC [7:0] $end
$var wire 1 ) branch $end
$var wire 8 i pc_branch [7:0] $end
$var wire 1 j newPC $end
$var wire 1 0 PCSel $end
$var wire 32 k Imm [31:0] $end
$upscope $end
$scope module Ctrl $end
$var wire 1 : BrEq $end
$var wire 1 9 BrLt $end
$var wire 32 l instruction [31:0] $end
$var reg 4 m ALUSel [3:0] $end
$var reg 1 < ASel $end
$var reg 1 ; BSel $end
$var reg 1 8 BrU $end
$var reg 3 n DatasizeSel [2:0] $end
$var reg 3 o ImmSel [2:0] $end
$var reg 1 1 MemRW $end
$var reg 1 0 PCSel $end
$var reg 1 , RegWrite $end
$var reg 2 p WBSel [1:0] $end
$upscope $end
$scope module Data_Mem $end
$var wire 32 q Address [31:0] $end
$var wire 3 r DatasizeSel [2:0] $end
$var wire 1 C MemRW $end
$var wire 32 s WriteData [31:0] $end
$var wire 1 ! clk $end
$var reg 32 t Read_Data [31:0] $end
$upscope $end
$scope module HazardDetect $end
$var wire 3 u DatasizeSel [2:0] $end
$var wire 5 v ID_EX_RD [4:0] $end
$var wire 5 w IF_ID_RS1 [4:0] $end
$var wire 5 x IF_ID_RS2 [4:0] $end
$var wire 1 & stall $end
$upscope $end
$scope module Imm_Gen $end
$var wire 3 y ImmSel [2:0] $end
$var wire 25 z inst [31:7] $end
$var reg 32 { Imm [31:0] $end
$upscope $end
$scope module Inst_Mem $end
$var wire 8 | PC [7:0] $end
$var wire 32 } instruction [31:0] $end
$upscope $end
$scope module Reg_File $end
$var wire 32 ~ Read_Data1 [31:0] $end
$var wire 32 !" Read_Data2 [31:0] $end
$var wire 5 "" Read_Reg1 [4:0] $end
$var wire 5 #" Read_Reg2 [4:0] $end
$var wire 1 [ RegWrite $end
$var wire 32 $" Write_Data [31:0] $end
$var wire 5 %" Write_Reg [4:0] $end
$var wire 1 ! clk $end
$var wire 1 # rst $end
$var integer 32 &" i [31:0] $end
$upscope $end
$upscope $end
$upscope $end
$enddefinitions $end
#0
$dumpvars
b100000 &"
b0 %"
b100 $"
b0 #"
b0 ""
b0 !"
b0 ~
b100000000000010010011 }
b0 |
b0 {
b0 z
b0 y
b0 x
b0 w
b0 v
b0 u
bx t
b0 s
b0 r
b0 q
b10 p
b0 o
b0 n
b0 m
b0 l
b0 k
0j
bz i
b0 h
b0 g
b0 f
b0 e
b0 d
b0 c
b0 b
b0 a
b0 `
b0 _
b0 ^
b0 ]
b0 \
0[
b0 Z
b0 Y
b0 X
b0 W
b0 V
b0 U
0T
b0 S
b0 R
b0 Q
b0 P
b0 O
b0 N
0M
b0 L
b0 K
0J
0I
b0 H
b0 G
0F
b0 E
b0 D
0C
b0 B
b0 A
b0 @
b0 ?
b0 >
b0 =
1<
1;
1:
09
08
b0 7
b0 6
b0 5
b0 4
b0 3
b100000000000010010011 2
01
00
b0 /
b0 .
bx -
1,
b100 +
b10 *
0)
b100 (
b100 '
0&
bz %
b0 $
1#
0"
1!
$end
#10000
b1 $
0!
#20000
1j
b1 4
b1 k
b1 {
b1 *
b1 p
b111 7
b111 n
b111 u
b1 5
b1 6
b1 #"
b10000000000001 z
b1 x
bx Z
b10 U
1J
1I
1T
b100000000000010010011 V
b100000000000010010011 l
1!
0#
#30000
b10 $
0!
#35000
1"
#40000
b1 =
b1 c
b1000 +
b1000 $"
b1 b
b1 >
b1 a
b1000 '
b1000 (
b100000010000000100011 2
b100000010000000100011 }
b100 ]
b100 |
b1 U
b111 K
b1 L
b1 O
b1 v
b1 S
b10 G
1F
1!
#50000
b11 $
0!
#60000
0j
b0 4
b0 k
b0 {
1&
b1 =
b1 c
b10 *
b10 p
11
b10 7
b10 n
b10 u
b1 3
b1 o
b1 y
0,
b0 `
b0 ?
b0 ^
bx +
bx $"
b10 5
b1000 '
b1 6
b1000 (
b1000000000000100010011 2
b1000000000000100010011 }
b0 -
b0 t
b10000001000000 z
b1000 ]
b1000 |
b10 \
1[
b1 G
b111 B
b111 r
b1 A
b1 q
b1 D
b100 W
b100 h
b100000010000000100011 V
b100000010000000100011 l
1!
#70000
b100 $
0!
#80000
b101 =
b101 c
b10 4
b10 k
b10 {
b1 *
b1 p
01
b111 7
b111 n
b111 u
b0 3
b0 o
b0 y
1,
b1100 '
b100 `
b100 ?
b100 ^
b1100 (
b0 6
0&
b10 #"
b100000000000010 z
b10 x
b1 +
b1 $"
b1000 W
b1000 h
b1000000000000100010011 V
b1000000000000100010011 l
b0 U
0J
0I
b0 K
0T
b100 N
b0 L
b0 O
b0 v
b1 \
b1 X
b0 Z
b1 Y
b1 %"
1!
#90000
b101 $
0!
#100000
b10 =
b10 c
b10 b
b10 >
b10 a
b1 6
b0 `
b0 ?
b0 ^
b10000 '
b1 5
b10000 (
b1100000000000110010011 2
b1100000000000110010011 }
bx -
bx t
b1100 ]
b1100 |
b0 G
b0 B
b0 r
0F
b101 A
b101 q
b0 D
b1 U
1J
1I
b111 K
1T
b1000 N
b10 L
b10 O
b10 v
b10 S
1!
#110000
b110 $
0!
#120000
1j
b11 4
b11 k
b11 {
b10 5
b10100 '
b10100 +
b10100 $"
b10100 (
b10000000000001000010011 2
b10000000000001000010011 }
b11 #"
b110000000000011 z
b11 x
b0 -
b0 t
b10000 ]
b10000 |
b1100 W
b1100 h
b1100000000000110010011 V
b1100000000000110010011 l
b1 G
b111 B
b111 r
1F
b10 A
b10 q
b10 D
b0 \
0[
b101 X
bx Z
b0 Y
b0 %"
1!
#130000
b111 $
0!
#140000
0j
b11 =
b11 c
b100 4
b100 k
b100 {
b11 b
b11 >
b11 a
b10 +
b10 $"
b1 5
b11000 '
b11000 (
b10100000000001010010011 2
b10100000000001010010011 }
b100 #"
b1000000000000100 z
b100 x
b10100 ]
b10100 |
b1 \
1[
b10 X
b0 Z
b10 Y
b10 %"
b1100 N
b11 L
b11 O
b11 v
b11 S
b10000 W
b10000 h
b10000000000001000010011 V
b10000000000001000010011 l
1!
#150000
b1000 $
0!
#160000
1j
b100 =
b100 c
b101 4
b101 k
b101 {
b100 b
b100 >
b100 a
b11100 '
b11100 (
b111111111100000000001100010011 2
b111111111100000000001100010011 }
b101 #"
b1010000000000101 z
b101 x
b11000 ]
b11000 |
b10100 W
b10100 h
b10100000000001010010011 V
b10100000000001010010011 l
b10000 N
b100 L
b100 O
b100 v
b100 S
b11 A
b11 q
b11 D
1!
#170000
b1001 $
0!
#180000
b101 =
b101 c
b1111111111 4
b1111111111 k
b1111111111 {
b101 b
b101 >
b101 a
b100000 '
b11 +
b11 $"
b100000 (
b1110010011 2
b1110010011 }
b11111 #"
b11111111110000000000110 z
b11111 x
b11100 ]
b11100 |
b11 X
b11 Y
b11 %"
b100 A
b100 q
b100 D
b10100 N
b101 L
b101 O
b101 v
b101 S
b11000 W
b11000 h
b111111111100000000001100010011 V
b111111111100000000001100010011 l
1!
#190000
b1010 $
0!
#200000
0j
b1111111111 =
b1111111111 c
b0 4
b0 k
b0 {
b1111111111 b
b1111111111 >
b1111111111 a
b100100 '
b100 +
b100 $"
b100100 (
b10000010011 2
b10000010011 }
b0 #"
b111 z
b0 x
b100000 ]
b100000 |
b11100 W
b11100 h
b1110010011 V
b1110010011 l
b11000 N
b1111111111 L
b110 O
b110 v
b11111 S
b101 A
b101 q
b101 D
b100 X
b100 Y
b100 %"
1!
#210000
b1011 $
0!
#220000
b0 =
b0 c
b0 b
b0 >
b0 a
b101000 '
b101 +
b101 $"
b101000 (
b100100000000010010010011 2
b100100000000010010010011 }
b1000 z
b100100 ]
b100100 |
b101 X
b101 Y
b101 %"
b1111111111 A
b1111111111 q
b110 D
b11100 N
b0 L
b111 O
b111 v
b0 S
b100000 W
b100000 h
b10000010011 V
b10000010011 l
1!
#230000
b1100 $
0!
#240000
1j
b1001 4
b1001 k
b1001 {
b101100 '
b1111111111 +
b1111111111 $"
b101100 (
b101000000000010100010011 2
b101000000000010100010011 }
b1001 #"
b10010000000001001 z
b1001 x
b101000 ]
b101000 |
b100100 W
b100100 h
b100100000000010010010011 V
b100100000000010010010011 l
b100000 N
b1000 O
b1000 v
b0 A
b0 q
b111 D
b1111111111 X
b110 Y
b110 %"
1!
#250000
b1101 $
0!
#260000
0j
b1001 =
b1001 c
b1010 4
b1010 k
b1010 {
b1001 b
b1001 >
b1001 a
b110000 '
b0 +
b0 $"
b110000 (
b101100000000010110010011 2
b101100000000010110010011 }
b1010 #"
b10100000000001010 z
b1010 x
b101100 ]
b101100 |
b0 X
b111 Y
b111 %"
b1000 D
b100100 N
b1001 L
b1001 O
b1001 v
b1001 S
b101000 W
b101000 h
b101000000000010100010011 V
b101000000000010100010011 l
1!
#270000
b1110 $
0!
#280000
1j
b1010 =
b1010 c
b1011 4
b1011 k
b1011 {
b1010 b
b1010 >
b1010 a
b110100 '
b110100 (
b110000000000011000010011 2
b110000000000011000010011 }
b1011 #"
b10110000000001011 z
b1011 x
b110000 ]
b110000 |
b101100 W
b101100 h
b101100000000010110010011 V
b101100000000010110010011 l
b101000 N
b1010 L
b1010 O
b1010 v
b1010 S
b1001 A
b1001 q
b1001 D
b1000 Y
b1000 %"
1!
#290000
b1111 $
0!
#300000
0j
b1011 =
b1011 c
b1100 4
b1100 k
b1100 {
b1011 b
b1011 >
b1011 a
b111000 '
b1001 +
b1001 $"
b111000 (
b101000000000011010010011 2
b101000000000011010010011 }
b1100 #"
b11000000000001100 z
b1100 x
b110100 ]
b110100 |
b1001 X
b1001 Y
b1001 %"
b1010 A
b1010 q
b1010 D
b101100 N
b1011 L
b1011 O
b1011 v
b1011 S
b110000 W
b110000 h
b110000000000011000010011 V
b110000000000011000010011 l
1!
#310000
b10000 $
0!
#320000
b1100 =
b1100 c
b1010 4
b1010 k
b1010 {
b1100 b
b1100 >
b1100 a
b111100 '
b1010 +
b1010 $"
b111100 (
b11100010011 2
b11100010011 }
b1010 #"
b10100000000001101 z
b1010 x
b111000 ]
b111000 |
b110100 W
b110100 h
b101000000000011010010011 V
b101000000000011010010011 l
b110000 N
b1100 L
b1100 O
b1100 v
b1100 S
b1011 A
b1011 q
b1011 D
b1010 X
b1010 Y
b1010 %"
1!
#330000
b10001 $
0!
#340000
b1010 =
b1010 c
b0 4
b0 k
b0 {
b1010 b
b1010 >
b1010 a
b1000000 '
b1011 +
b1011 $"
b1000000 (
b1110010000010000011 2
b1110010000010000011 }
b0 #"
b1110 z
b0 x
09
b111100 ]
b111100 |
b1011 X
b1011 Y
b1011 %"
b1100 A
b1100 q
b1100 D
b110100 N
b1010 L
b1101 O
b1101 v
b1010 S
b111000 W
b111000 h
b11100010011 V
b11100010011 l
1:
b0 e
b0 .
b0 f
b0 !"
1!
#350000
b10010 $
0!
#360000
1&
b0 =
b0 c
b10 *
b10 p
b10 7
b10 n
b10 u
b0 b
b0 >
b0 a
b1000000 '
b1100 +
b1100 $"
b1000000 (
b1000001000101010110011 2
b1000001000101010110011 }
b1110 ""
b111001000001 z
b1110 w
b1000000 ]
b1000000 |
b111100 W
b111100 h
b1110010000010000011 V
b1110010000010000011 l
b111000 N
b0 L
b1110 O
b1110 v
b0 S
b1010 A
b1010 q
b1101 D
b1100 X
b1100 Y
b1100 %"
1!
#370000
b10011 $
0!
#380000
b1000100 '
b1000100 (
0&
b0 4
b0 k
b0 {
b1 *
b1 p
0;
b111 7
b111 n
b111 u
b111 3
b111 o
b111 y
b0 5
b10 6
b1010 +
b1010 $"
19
b1 d
b1 /
b1 g
b1 ~
b1 ""
0:
b10 e
b10 .
b10 f
b10 !"
b10 #"
b100000100010101 z
b1 w
b10 x
b1010 X
b1101 Y
b1101 %"
b0 A
b0 q
b1110 D
b0 U
0J
0I
b0 K
0T
b111100 N
b1 O
b1 v
b1110 R
b1000000 W
b1000000 h
b1000001000101010110011 V
b1000001000101010110011 l
1!
#390000
b10100 $
0!
#400000
b11 =
b11 c
b1 `
b1 ?
b1 ^
b10 b
b10 >
b10 a
b1 6
b1001000 '
b0 +
b0 $"
b1001000 (
b1110101000101100110011 2
b1110101000101100110011 }
bx -
bx t
b1000100 ]
b1000100 |
b1 U
1I
b111 K
1T
b1000000 N
b10 Q
b1 P
b10101 O
b10101 v
b10 S
b1 R
b0 G
b0 B
b0 r
0F
b1 D
b0 X
b1110 Y
b1110 %"
1!
#410000
b10101 $
0!
#420000
b1001100 +
b1001100 $"
b1001100 '
b1001100 (
b10010110000101110110011 2
b10010110000101110110011 }
b0 -
b0 t
b0 d
b0 /
b0 g
b0 ~
b10101 ""
b11 e
b11 .
b11 f
b11 !"
b11 #"
b111010100010110 z
b10101 w
b11 x
b1001000 ]
b1001000 |
b0 \
0[
bx Z
b1 Y
b1 %"
b1 G
b111 B
b111 r
1F
b11 A
b11 q
b10 E
b10 s
b10101 D
b1000100 W
b1000100 h
b1110101000101100110011 V
b1110101000101100110011 l
1!
#430000
b10110 $
0!
#440000
b110 =
b110 c
b11 +
b11 $"
b11 b
b11 >
b11 a
b11 `
b11 ?
b11 ^
b10 6
b1010000 '
b1010000 (
b1000000010110111000110000110011 2
b1000000010110111000110000110011 }
b10110 ""
b100 e
b100 .
b100 f
b100 !"
b100 #"
b1001011000010111 z
b10110 w
b100 x
b1001100 ]
b1001100 |
b1001000 W
b1001000 h
b10010110000101110110011 V
b10010110000101110110011 l
b1000100 N
b11 Q
b0 P
b10110 O
b10110 v
b11 S
b10101 R
b1 \
1[
b11 X
b0 Z
b10101 Y
b10101 %"
1!
#450000
b10111 $
0!
#460000
b1010 =
b1010 c
b1000 @
b1000 m
b100 b
b100 >
b100 a
b1010100 '
b110 `
b110 ?
b110 ^
b1010100 (
b11011000111110010110011 2
b11011000111110010110011 }
b10111 ""
b101 e
b101 .
b101 f
b101 !"
b101 #"
b100000001011011100011000 z
b10111 w
b101 x
b1010000 ]
b1010000 |
b110 A
b110 q
b11 E
b11 s
b10110 D
b1001000 N
b100 Q
b10111 O
b10111 v
b100 S
b10110 R
b1001100 W
b1001100 h
b1000000010110111000110000110011 V
b1000000010110111000110000110011 l
1!
#470000
b11000 $
0!
#480000
b111 @
b111 m
b101 =
b101 c
b101 b
b101 >
b101 a
b1011000 '
b1010 `
b1010 ?
b1010 ^
b110 +
b110 $"
b1011000 (
b11111001110110100110011 2
b11111001110110100110011 }
b11000 ""
b1111111111 e
b1111111111 .
b1111111111 f
b1111111111 !"
b110 #"
b1101100011111001 z
b11000 w
b110 x
b1010100 ]
b1010100 |
b1010000 W
b1010000 h
b11011000111110010110011 V
b11011000111110010110011 l
b1000 H
b1000 _
b1001100 N
b101 Q
b11000 O
b11000 v
b101 S
b10111 R
b1010 A
b1010 q
b100 E
b100 s
b10111 D
b110 X
b10110 Y
b10110 %"
1!
#490000
b11001 $
0!
#500000
b101 =
b101 c
b110 @
b110 m
b1111111111 b
b1111111111 >
b1111111111 a
b1011100 '
b1010 +
b1010 $"
b101 `
b101 ?
b101 ^
09
b1011100 (
b100011010100110110110011 2
b100011010100110110110011 }
b11001 ""
1:
b0 e
b0 .
b0 f
b0 !"
b111 #"
b1111100111011010 z
b11001 w
b111 x
b1011000 ]
b1011000 |
b1010 X
b10111 Y
b10111 %"
b101 A
b101 q
b101 E
b101 s
b11000 D
b111 H
b111 _
b1010000 N
b1111111111 Q
b11001 O
b11001 v
b110 S
b11000 R
b1010100 W
b1010100 h
b11111001110110100110011 V
b11111001110110100110011 l
1!
#510000
b11010 $
0!
#520000
b100 @
b100 m
b101 =
b101 c
b0 b
b0 >
b0 a
b1100000 '
b101 +
b101 $"
b1100000 (
b10001110000011100010011 2
b10001110000011100010011 }
b11010 ""
b1000 #"
b10001101010011011 z
b11010 w
b1000 x
b1011100 ]
b1011100 |
b1011000 W
b1011000 h
b100011010100110110110011 V
b100011010100110110110011 l
b110 H
b110 _
b1010100 N
b0 Q
b11010 O
b11010 v
b111 S
b11001 R
b1111111111 E
b1111111111 s
b11001 D
b101 X
b11000 Y
b11000 %"
1!
#530000
b11011 $
0!
#540000
b100 4
b100 k
b100 {
b0 @
b0 m
1;
b0 3
b0 o
b0 y
b1100100 '
19
b1100100 (
b1101101110010000000100011 2
b1101101110010000000100011 }
b1110 ""
0:
b100 e
b100 .
b100 f
b100 !"
b100 #"
b1000111000001110 z
b1110 w
b100 x
b1100000 ]
b1100000 |
b11001 Y
b11001 %"
b0 E
b0 s
b11010 D
b100 H
b100 _
b1011000 N
b11011 O
b11011 v
b1000 S
b11010 R
b1011100 W
b1011100 h
b10001110000011100010011 V
b10001110000011100010011 l
1!
#550000
b11100 $
0!
#560000
1&
0j
b100 =
b100 c
b0 4
b0 k
b0 {
b10 *
b10 p
11
b10 7
b10 n
b10 u
b1 3
b1 o
b1 y
0,
b0 `
b0 ?
b0 ^
b1 5
b100 b
b100 >
b100 a
b1 6
b1100100 '
09
b1100100 (
b10101101001111000110011 2
b10101101001111000110011 }
1:
b0 e
b0 .
b0 f
b0 !"
b11011 #"
b110110111001000000 z
b11011 x
b1100100 ]
b1100100 |
b1100000 W
b1100000 h
b1101101110010000000100011 V
b1101101110010000000100011 l
b0 H
b0 _
1J
b1011100 N
b100 L
b100 Q
b1110 O
b1110 v
b100 S
b1110 R
b11011 D
b11010 Y
b11010 %"
1!
#570000
b11101 $
0!
#580000
b1001 =
b1001 c
b0 4
b0 k
b0 {
b1 *
b1 p
b1 @
b1 m
01
0;
b111 7
b111 n
b111 u
b111 3
b111 o
b111 y
1,
b100 `
b100 ?
b100 ^
b1101000 '
b11 5
b10 6
b101 b
b101 >
b101 a
b1101000 (
0&
b1010 d
b1010 /
b1010 g
b1010 ~
b1101 ""
0:
b101 e
b101 .
b101 f
b101 !"
b101 #"
b1010110100111100 z
b1101 w
b101 x
b11011 Y
b11011 %"
b100 A
b100 q
b100 E
b100 s
b1110 D
b0 U
0J
0I
b0 K
0T
b1100000 N
b0 L
b0 Q
b0 O
b0 v
b11011 S
b1100100 W
b1100100 h
b10101101001111000110011 V
b10101101001111000110011 l
1!
#590000
b11110 $
0!
#600000
b101000000 =
b101000000 c
b0 5
b1101100 '
b1010 `
b1010 ?
b1010 ^
b1 6
b100 +
b100 $"
b1101100 (
b1111100101111010110011 2
b1111100101111010110011 }
bx -
bx t
b101 b
b101 >
b101 a
b1101000 ]
b1101000 |
b1 U
b1 H
b1 _
1I
b111 K
1T
b1100100 N
b101 Q
b1010 P
b11100 O
b11100 v
b101 S
b1101 R
b0 G
b0 B
b0 r
0F
b1001 A
b1001 q
b0 E
b0 s
b0 D
b100 X
b1110 Y
b1110 %"
1!
#610000
b11111 $
0!
#620000
b101 @
b101 m
b1110000 '
b1110000 +
b1110000 $"
19
b1110000 (
b10101101010111100110011 2
b10101101010111100110011 }
b0 -
b0 t
b0 d
b0 /
b0 g
b0 ~
b11100 ""
b11 e
b11 .
b11 f
b11 !"
b11 #"
b111110010111101 z
b11100 w
b11 x
b1101100 ]
b1101100 |
b0 \
0[
b1001 X
bx Z
b0 Y
b0 %"
b1 G
b111 B
b111 r
1F
b101000000 A
b101000000 q
b101 E
b101 s
b11100 D
b1101000 W
b1101000 h
b1111100101111010110011 V
b1111100101111010110011 l
1!
#630000
b100000 $
0!
#640000
b10 @
b10 m
b101000 =
b101000 c
b101000000 +
b101000000 $"
b11 b
b11 >
b11 a
b101000000 `
b101000000 ?
b101000000 ^
b10 6
b1110100 '
09
b1110100 (
b1110111110000111110110011 2
b1110111110000111110110011 }
b1010 d
b1010 /
b1010 g
b1010 ~
b1101 ""
b101 e
b101 .
b101 f
b101 !"
b101 #"
b1010110101011110 z
b1101 w
b101 x
b1110000 ]
b1110000 |
b1101100 W
b1101100 h
b10101101010111100110011 V
b10101101010111100110011 l
b101 H
b101 _
b1101000 N
b11 Q
b0 P
b11101 O
b11101 v
b11 S
b11100 R
b1 \
1[
b101000000 X
b0 Z
b11100 Y
b11100 %"
1!
#650000
b100001 $
0!
#660000
b0 =
b0 c
b0 @
b0 m
b101 b
b101 >
b101 a
b1 6
b1111000 '
b1010 `
b1010 ?
b1010 ^
b1111000 (
b10001110000011100010011 2
b10001110000011100010011 }
1:
b0 d
b0 /
b0 g
b0 ~
b11110 ""
b0 e
b0 .
b0 f
b0 !"
b11101 #"
b111011111000011111 z
b11110 w
b11101 x
b1110100 ]
b1110100 |
b101000 A
b101000 q
b11 E
b11 s
b11101 D
b10 H
b10 _
b1101100 N
b101 Q
b1010 P
b11110 O
b11110 v
b101 S
b1101 R
b1110000 W
b1110000 h
b1110111110000111110110011 V
b1110111110000111110110011 l
1!
#670000
b100010 $
0!
#680000
b100 4
b100 k
b100 {
1;
b0 3
b0 o
b0 y
b101000 =
b101000 c
b11 5
b101000 b
b101000 >
b101000 a
b0 `
b0 ?
b0 ^
b10 6
b1111100 '
b101000 +
b101000 $"
b1111100 (
b1111101110010000000100011 2
b1111101110010000000100011 }
b100 d
b100 /
b100 g
b100 ~
b1110 ""
1:
b100 e
b100 .
b100 f
b100 !"
b100 #"
b1000111000001110 z
b1110 w
b100 x
b1111000 ]
b1111000 |
b1110100 W
b1110100 h
b10001110000011100010011 V
b10001110000011100010011 l
b0 H
b0 _
b1110000 N
b0 Q
b0 P
b11111 O
b11111 v
b11101 S
b11110 R
b0 A
b0 q
b101 E
b101 s
b11110 D
b101000 X
b11101 Y
b11101 %"
1!
#690000
b100011 $
0!
#700000
1&
0j
b1000 =
b1000 c
b0 4
b0 k
b0 {
b10 *
b10 p
11
b10 7
b10 n
b10 u
b1 3
b1 o
b1 y
0,
b1 5
b1 6
b1111100 '
b0 +
b0 $"
b100 `
b100 ?
b100 ^
b1111100 (
b11111111111101101000011010010011 2
b11111111111101101000011010010011 }
b100 b
b100 >
b100 a
0:
b0 e
b0 .
b0 f
b0 !"
b11111 #"
b111110111001000000 z
b11111 x
b1111100 ]
b1111100 |
b0 X
b11110 Y
b11110 %"
b101000 A
b101000 q
b0 E
b0 s
b11111 D
1J
b1110100 N
b100 L
b100 Q
b100 P
b1110 O
b1110 v
b100 S
b1110 R
b1111000 W
b1111000 h
b1111101110010000000100011 V
b1111101110010000000100011 l
1!
#710000
b100100 $
0!
#720000
1j
b110000 =
b110000 c
b11111111111111111111111111111111 4
b11111111111111111111111111111111 k
b11111111111111111111111111111111 {
b1 *
b1 p
01
b111 7
b111 n
b111 u
b0 3
b0 o
b0 y
1,
b1000 `
b1000 ?
b1000 ^
b10000000 '
b11 5
b101000 b
b101000 >
b101000 a
b10000000 (
b10 6
0&
b101000 +
b101000 $"
b1010 d
b1010 /
b1010 g
b1010 ~
b1101 ""
b1111111111110110100001101 z
b1101 w
b1111100 W
b1111100 h
b11111111111101101000011010010011 V
b11111111111101101000011010010011 l
b0 U
0J
0I
b0 K
0T
b1111000 N
b0 L
b0 Q
b0 O
b0 v
b11111 S
b1000 A
b1000 q
b100 E
b100 s
b1110 D
b101000 X
b11111 Y
b11111 %"
1!
#730000
b100101 $
0!
#740000
b1001 =
b1001 c
b1 5
b10000100 '
b1000 +
b1000 $"
b1010 `
b1010 ?
b1010 ^
b1 6
b10000100 (
b11111010110100000001111011100011 2
b11111010110100000001111011100011 }
b11111111111111111111111111111111 b
b11111111111111111111111111111111 >
b11111111111111111111111111111111 a
bx -
bx t
19
b10000000 ]
b10000000 |
b1000 X
b1110 Y
b1110 %"
b0 G
b0 B
b0 r
0F
b110000 A
b110000 q
b0 E
b0 s
b0 D
b1 U
1J
1I
b111 K
1T
b1111100 N
b11111111111111111111111111111111 L
b1010 P
b1101 O
b1101 v
b1101 R
b101000 e
b101000 .
b101000 f
b101000 !"
1!
#750000
b100110 $
0!
#760000
0j
b1000 =
b1000 c
b11111111111111111111111110111100 4
b11111111111111111111111110111100 k
b11111111111111111111111110111100 {
1)
10
0<
b11 3
b11 o
b11 y
0,
b0 *
b0 p
b1001 `
b1001 ?
b1001 ^
b10 6
bz '
b10001000 +
b10001000 $"
b10001000 (
bx 2
bx }
b0 d
b0 /
b0 g
b0 ~
b0 ""
0:
b1010 e
b1010 .
b1010 f
b1010 !"
b1101 #"
b1111101011010000000111101 z
b0 w
b1101 x
b0 -
b0 t
b10000100 ]
b10000100 |
b10000000 W
b10000000 h
b11111010110100000001111011100011 V
b11111010110100000001111011100011 l
b101000 Q
b1 G
b111 B
b111 r
1F
b1001 A
b1001 q
b1101 D
b0 \
0[
b110000 X
bx Z
b0 Y
b0 %"
1!
#770000
b100111 $
0!
#780000
xj
b10001000 =
b10001000 c
bx0 4
bx0 k
bx0 {
b1001 +
b1001 $"
b1000 b
b1000 >
b1000 a
b10 5
b0 6
b10000000 `
b10000000 ?
b10000000 ^
x9
bx (
bx d
bx /
bx g
bx ~
bx ""
x:
bx e
bx .
bx f
bx !"
bx #"
bx z
bx w
bx x
bz ]
bz |
b1 \
1[
b1001 X
b0 Z
b1101 Y
b1101 %"
b1000 A
b1000 q
b101000 E
b101000 s
b0 U
0I
0T
b10000000 N
b11111111111111111111111110111100 L
b1010 Q
b0 P
b11101 O
b11101 v
b1101 S
b0 R
b10000100 W
b10000100 h
bx V
bx l
1!
